PIF adjustments and expansion to other causes
…
#check whether the AAF table itself has duplicate/conflicting keys:
aaf_long |>
  dplyr::group_by(year, age_group, gender, disease) |>
  dplyr::summarise(
    n_rows = dplyr::n(),
    n_value_sets = dplyr::n_distinct(paste(point, lower, upper)),
    .groups = "drop"
  ) |>
  # 2026-06-30: Shows combinations with only one row; Show combinations with only a set of values
  dplyr::filter(n_rows == 1 | n_value_sets == 1)

# before joining, verify for duplicates
#stopifnot(nrow(dplyr::count(aaf_sub, year, age_group, gender) |> dplyr::filter(n > 1)) == 0)

# A tibble: 1,260 × 6
    year age_group gender disease                    n_rows n_value_sets
   <int>     <int> <chr>  <chr>                       <int>        <int>
 1  2012         1 Hombre Acute Pancreatitis              1            1
 2  2012         1 Hombre Colon and rectum Cancer         1            1
 3  2012         1 Hombre DM2                             1            1
 4  2012         1 Hombre Epilepsy                        1            1
 5  2012         1 Hombre HIV                             1            1
 6  2012         1 Hombre Hypertensive Heart Disease      1            1
 7  2012         1 Hombre Intentional Injuries            1            1
 8  2012         1 Hombre Intracerebral Haemorrhage       1            1
 9  2012         1 Hombre Ischaemic Heart Disease         1            1
10  2012         1 Hombre Ischaemic Stroke                1            1
# ℹ 1,250 more rows
# ℹ Use `print(n = ...)` to see more rows
…
Code

cancer_compare_comparable

# A tibble: 105 × 21
    Year disease           sex    age_group AAF_pipeline LL_pipeline UL_pipeline muertes_pipeline att_mort_pipeline att_mort_low_pipeline att_mort_up_pipeline AAF_jrt LL_jrt UL_jrt muertes_jrt att_mort_jrt
   <dbl> <chr>             <chr>  <chr>            <dbl>       <dbl>       <dbl>            <dbl>             <dbl>                 <dbl>                <dbl>   <dbl>  <dbl>  <dbl>       <dbl>        <dbl>
 1  2012 Breast Cancer     Female 60+               0.02        0.01        0.02              876                18                     9                   18   0.014  0.01   0.017         876           12
 2  2014 Breast Cancer     Female 60+               0.03        0.02        0.03              901                27                    18                   27   0.021  0.017  0.026         901           19
 3  2016 Breast Cancer     Female 60+               0.02        0.02        0.03              957                19                    19                   29   0.015  0.012  0.019         957           14
 4  2018 Breast Cancer     Female 60+               0.02        0.01        0.02             1026                21                    10                   21   0.014  0.011  0.018        1026           14
 5  2020 Breast Cancer     Female 60+               0.03        0.02        0.03             1089                33                    22                   33   0.018  0.014  0.022        1089           20
 6  2022 Breast Cancer     Female 60+               0.02        0.02        0.02             1167                23                    23                   23   0.014  0.011  0.018        1167           16
 7  2024 Breast Cancer     Female 60+               0.02        0.01        0.02             1283                26                    13                   26   0.011  0.008  0.015        1283           14
 8  2012 Colorectal Cancer Female 60+               0.02       -0.02        0.07              938                19                   -19                   66   0.026  0.023  0.03          938           24
 9  2014 Colorectal Cancer Female 60+               0.03       -0.02        0.09             1000                30                   -20                   90   0.033  0.029  0.038        1000           33
10  2016 Colorectal Cancer Female 60+               0.03       -0.03        0.09             1110                33                   -33                  100   0.032  0.029  0.035        1110           36
# ℹ 95 more rows
# ℹ 5 more variables: att_mort_low_jrt <dbl>, att_mort_up_jrt <dbl>, diff_muertes <dbl>, diff_att_mort <dbl>, diff_AAF <dbl>
# ℹ Use `print(n = ...)` to see more rows
…
|                   | Acute Pancreatitis| Breast Cancer| Colon and rectum Cancer| DM2| Epilepsy| Fully attributable to alcohol| HIV| Hypertensive Heart Disease| Intentional Injuries| Intracerebral Haemorrhage| Ischaemic Heart Disease| Ischaemic Stroke| Larynx Cancer| Liver Cancer| Liver Cirrhosis| Lower Respiratory Infection| Oesophagus Cancer| Oral Cavity and Pharynx Cancer| Other Pharyngeal Cancer| Pancreatic Cancer| Road Injuries| Stomach Cancer| Tuberculosis| Unintentional Injuries|
|:------------------|------------------:|-------------:|-----------------------:|---:|--------:|-----------------------------:|---:|--------------------------:|--------------------:|-------------------------:|-----------------------:|----------------:|-------------:|------------:|---------------:|---------------------------:|-----------------:|------------------------------:|-----------------------:|-----------------:|-------------:|--------------:|------------:|----------------------:|
|Cancer             |                  0|            28|                      56|   0|        0|                             0|   0|                          0|                    0|                         0|                       0|                0|            36|           54|               0|                           0|                43|                             49|                      38|                48|             0|             56|            0|                      0|
|Cardiovascular     |                  0|             0|                       0|   0|        0|                             0|   0|                         54|                    0|                        56|                      56|               56|             0|            0|               0|                           0|                 0|                              0|                       0|                 0|             0|              0|            0|                      0|
|Fully Attributable |                  0|             0|                       0|   0|        0|                           129|   0|                          0|                    0|                         0|                       0|                0|             0|            0|               0|                           0|                 0|                              0|                       0|                 0|             0|              0|            0|                      0|
|Injuries           |                  0|             0|                       0|   0|        0|                             0|   0|                          0|                   56|                         0|                       0|                0|             0|            0|               0|                           0|                 0|                              0|                       0|                 0|            56|              0|            0|                     56|
|Neuropsychiatric   |                  0|             0|                       0|   0|       56|                             0|   0|                          0|                    0|                         0|                       0|                0|             0|            0|               0|                           0|                 0|                              0|                       0|                 0|             0|              0|            0|                      0|
|Other Causes       |                 55|             0|                       0|  56|        0|                             0|  56|                          0|                    0|                         0|                       0|                0|             0|            0|              55|                          56|                 0|                              0|                       0|                 0|             0|              0|           56|                      0|

Code

mortality_results_cat

# A tibble: 1,317 × 8
    year age_group gender disease              mort ll_mort up_mort category    
   <int>     <dbl> <chr>  <chr>               <dbl>   <dbl>   <dbl> <chr>       
 1  2012         1 Hombre Acute Pancreatitis  0.289  0.193    0.393 Other Causes
 2  2012         1 Mujer  Acute Pancreatitis  0.546  0.114    0.994 Other Causes
 3  2012         2 Hombre Acute Pancreatitis  5.90   4.04     7.95  Other Causes
 4  2012         2 Mujer  Acute Pancreatitis  1.93   0.486    3.43  Other Causes
 5  2012         3 Hombre Acute Pancreatitis 15.1   10.1     20.4   Other Causes
 6  2012         3 Mujer  Acute Pancreatitis  1.08   0.240    2.03  Other Causes
 7  2012         4 Hombre Acute Pancreatitis  2.59   1.67     3.60  Other Causes
 8  2012         4 Mujer  Acute Pancreatitis  1.65   0.336    3.26  Other Causes
 9  2014         1 Hombre Acute Pancreatitis  2.29   1.52     3.09  Other Causes
10  2014         1 Mujer  Acute Pancreatitis  0.814  0.0816   1.57  Other Causes
# ℹ 1,307 more rows
# ℹ Use `print(n = ...)` to see more rows
…
Warning messages:

1: Removed 61 rows containing missing values or values outside the scale range (`geom_line()`). 

2: Removed 62 rows containing missing values or values outside the scale range (`geom_point()`). 

Tables

Code

mortality_results

# A tibble: 1,317 × 7
    year age_group gender disease              mort ll_mort up_mort
   <int>     <dbl> <chr>  <chr>               <dbl>   <dbl>   <dbl>
 1  2012         1 Hombre Acute Pancreatitis  0.289  0.193    0.393
 2  2012         1 Mujer  Acute Pancreatitis  0.546  0.114    0.994
 3  2012         2 Hombre Acute Pancreatitis  5.90   4.04     7.95 
 4  2012         2 Mujer  Acute Pancreatitis  1.93   0.486    3.43 
 5  2012         3 Hombre Acute Pancreatitis 15.1   10.1     20.4  
 6  2012         3 Mujer  Acute Pancreatitis  1.08   0.240    2.03 
 7  2012         4 Hombre Acute Pancreatitis  2.59   1.67     3.60 
 8  2012         4 Mujer  Acute Pancreatitis  1.65   0.336    3.26 
 9  2014         1 Hombre Acute Pancreatitis  2.29   1.52     3.09 
10  2014         1 Mujer  Acute Pancreatitis  0.814  0.0816   1.57 
# ℹ 1,307 more rows
# ℹ Use `print(n = ...)` to see more rows
…
